[2023-05-07 20:13:23.179] - 1508 信息 [restartedMain] --- org.apache.catalina.core.StandardService: Starting service [Tomcat]
[2023-05-07 20:13:23.180] - 1508 信息 [restartedMain] --- org.apache.catalina.core.StandardEngine: Starting Servlet engine: [Apache Tomcat/9.0.53]
[2023-05-07 20:13:23.248] - 1508 信息 [restartedMain] --- org.apache.catalina.core.ContainerBase.[Tomcat].[localhost].[/]: Initializing Spring embedded WebApplicationContext
[2023-05-07 20:14:39.052] - 1508 信息 [http-nio-8080-exec-1] --- org.apache.catalina.core.ContainerBase.[Tomcat].[localhost].[/]: Initializing Spring DispatcherServlet 'dispatcherServlet'
