[2023-04-18 19:04:32.301] - 5984 信息 [restartedMain] --- org.apache.catalina.core.StandardService: Starting service [Tomcat]
[2023-04-18 19:04:32.305] - 5984 信息 [restartedMain] --- org.apache.catalina.core.StandardEngine: Starting Servlet engine: [Apache Tomcat/9.0.53]
[2023-04-18 19:04:32.428] - 5984 信息 [restartedMain] --- org.apache.catalina.core.ContainerBase.[Tomcat].[localhost].[/]: Initializing Spring embedded WebApplicationContext
[2023-04-18 19:05:15.174] - 5984 信息 [http-nio-8080-exec-1] --- org.apache.catalina.core.ContainerBase.[Tomcat].[localhost].[/]: Initializing Spring DispatcherServlet 'dispatcherServlet'
