[2023-03-18 13:35:03.371] - 11684 信息 [restartedMain] --- org.apache.catalina.core.StandardService: Starting service [Tomcat]
[2023-03-18 13:35:03.373] - 11684 信息 [restartedMain] --- org.apache.catalina.core.StandardEngine: Starting Servlet engine: [Apache Tomcat/9.0.53]
[2023-03-18 13:35:03.439] - 11684 信息 [restartedMain] --- org.apache.catalina.core.ContainerBase.[Tomcat].[localhost].[/]: Initializing Spring embedded WebApplicationContext
[2023-03-18 13:35:23.393] - 11684 信息 [http-nio-8080-exec-1] --- org.apache.catalina.core.ContainerBase.[Tomcat].[localhost].[/]: Initializing Spring DispatcherServlet 'dispatcherServlet'
