[2023-03-19 23:01:08.883] - 13104 信息 [restartedMain] --- org.apache.catalina.core.StandardService: Starting service [Tomcat]
[2023-03-19 23:01:08.886] - 13104 信息 [restartedMain] --- org.apache.catalina.core.StandardEngine: Starting Servlet engine: [Apache Tomcat/9.0.53]
[2023-03-19 23:01:08.978] - 13104 信息 [restartedMain] --- org.apache.catalina.core.ContainerBase.[Tomcat].[localhost].[/]: Initializing Spring embedded WebApplicationContext
[2023-03-19 23:01:18.753] - 13104 信息 [http-nio-8080-exec-1] --- org.apache.catalina.core.ContainerBase.[Tomcat].[localhost].[/]: Initializing Spring DispatcherServlet 'dispatcherServlet'
