[2023-03-18 13:33:50.882] - 2804 信息 [restartedMain] --- org.apache.catalina.core.StandardService: Starting service [Tomcat]
[2023-03-18 13:33:50.884] - 2804 信息 [restartedMain] --- org.apache.catalina.core.StandardEngine: Starting Servlet engine: [Apache Tomcat/9.0.53]
[2023-03-18 13:33:50.946] - 2804 信息 [restartedMain] --- org.apache.catalina.core.ContainerBase.[Tomcat].[localhost].[/]: Initializing Spring embedded WebApplicationContext
